{
  "connection": "default",
  "collectionName": "questions",
  "info": {
    "name": "questions",
    "description": ""
  },
  "options": {
    "timestamps": true
  },
  "attributes": {
    "options": {
      "default": "",
      "type": "json"
    },
    "Answer": {
      "default": "",
      "type": "string"
    },
    "QuestionImage": {
      "collection": "file",
      "via": "related",
      "plugin": "upload",
      "required": false
    },
    "ActualQuestion": {
      "default": "",
      "type": "text"
    },
    "testnameMongoId": {
      "model": "testname",
      "via": "questionMongoID"
    },
    "questiontype": {
      "model": "questiontype"
    },
    "testSeriesAllocated": {
      "default": false,
      "type": "boolean"
    }
  }
}