{
  "routes": [
    {
      "method": "GET",
      "path": "/examvenues",
      "handler": "Examvenue.find",
      "config": {
        "policies": []
      }
    },
    {
      "method": "GET",
      "path": "/examvenues/count",
      "handler": "Examvenue.count",
      "config": {
        "policies": []
      }
    },
    {
      "method": "GET",
      "path": "/examvenues/:_id",
      "handler": "Examvenue.findOne",
      "config": {
        "policies": []
      }
    },
    {
      "method": "POST",
      "path": "/examvenues",
      "handler": "Examvenue.create",
      "config": {
        "policies": []
      }
    },
    {
      "method": "PUT",
      "path": "/examvenues/:_id",
      "handler": "Examvenue.update",
      "config": {
        "policies": []
      }
    },
    {
      "method": "DELETE",
      "path": "/examvenues/:_id",
      "handler": "Examvenue.destroy",
      "config": {
        "policies": []
      }
    }
  ]
}
