{
  "routes": [
    {
      "method": "GET",
      "path": "/couponcodes",
      "handler": "Couponcode.find",
      "config": {
        "policies": []
      }
    },
    {
      "method": "GET",
      "path": "/couponcodes/count",
      "handler": "Couponcode.count",
      "config": {
        "policies": []
      }
    },
    {
      "method": "GET",
      "path": "/couponcodes/:_id",
      "handler": "Couponcode.findOne",
      "config": {
        "policies": []
      }
    },
    {
      "method": "POST",
      "path": "/couponcodes",
      "handler": "Couponcode.create",
      "config": {
        "policies": []
      }
    },
    {
      "method": "PUT",
      "path": "/couponcodes/:_id",
      "handler": "Couponcode.update",
      "config": {
        "policies": []
      }
    },
    {
      "method": "DELETE",
      "path": "/couponcodes/:_id",
      "handler": "Couponcode.destroy",
      "config": {
        "policies": []
      }
    },
    {
      "method": "GET",
      "path": "/createCouponCodes",
      "handler": "Couponcode.createCouponCodes",
      "config": {
        "policies": []
      }
    },
    {
      "method": "POST",
      "path": "/findByCouponcodes",
      "handler": "Couponcode.findByCouponcodes",
      "config": {
        "policies": []
      }
    }
  ]
}