{
  "connection": "default",
  "collectionName": "colleges",
  "info": {
    "name": "colleges",
    "description": ""
  },
  "options": {
    "timestamps": true
  },
  "attributes": {
    "name": {
      "default": "",
      "type": "string"
    }
  }
}